{
	"info": {
		"_postman_id": "a0b70a31-f36d-4db9-a716-00f183f8812c",
		"name": "AD User Management",
		"schema": "https://schema.getpostman.com/json/collection/v2.1.0/collection.json",
		"_exporter_id": "25044080"
	},
	"item": [
		{
			"name": "Get  User using PJ Number",
			"request": {
				"method": "GET",
				"header": [],
				"url": {
					"raw": "{{base_url}}/api/user/81804",
					"host": [
						"{{base_url}}"
					],
					"path": [
						"api",
						"user",
						"81804"
					]
				}
			},
			"response": []
		},
		{
			"name": "Connect To AD Server",
			"request": {
				"method": "GET",
				"header": [],
				"url": {
					"raw": "{{base_url}}/api/user/81804",
					"host": [
						"{{base_url}}"
					],
					"path": [
						"api",
						"user",
						"81804"
					]
				}
			},
			"response": []
		},
		{
			"name": "Get  ALL Users",
			"request": {
				"method": "GET",
				"header": [],
				"url": {
					"raw": "{{base_url}}/api/user/81804",
					"host": [
						"{{base_url}}"
					],
					"path": [
						"api",
						"user",
						"81804"
					]
				}
			},
			"response": []
		},
		{
			"name": "Reset Password",
			"request": {
				"method": "GET",
				"header": [],
				"url": {
					"raw": "{{base_url}}/api/user/81804",
					"host": [
						"{{base_url}}"
					],
					"path": [
						"api",
						"user",
						"81804"
					]
				}
			},
			"response": []
		}
	],
	"event": [
		{
			"listen": "prerequest",
			"script": {
				"type": "text/javascript",
				"exec": [
					""
				]
			}
		},
		{
			"listen": "test",
			"script": {
				"type": "text/javascript",
				"exec": [
					""
				]
			}
		}
	],
	"variable": [
		{
			"key": "base_url",
			"value": "http://127.0.0.1:8000",
			"type": "string"
		}
	]
}